…
    twopt_wps <- rbind(twopt_down15, twopt_down14, twopt_down13, twopt_down12, twopt_down11, twopt_down10, 
                       twopt_down9, twopt_down8, twopt_down7, twopt_down6, twopt_down5, twopt_down4,
                       twopt_down3, twopt_down2, twopt_down1, twopt_tied, twopt_up1, twopt_up2, twopt_up3,
                       twopt_up4, twopt_up5, twopt_up6, twopt_up7, twopt_up8, twopt_up9, twopt_up10, 
                       twopt_up11, twopt_up12, twopt_up13, twopt_up14, twopt_up15)

    wp_shifts <- cbind.data.frame(kick_wps, twopt_wps)                

    #Finding some examples of game situations
    post_td_plays %>% 
      filter(extra_point_type == "Two-PointConversion") %>% 
      arrange(wpa)

    ## # A tibble: 678 x 56
    ##    play_id game_id home_team away_team posteam posteam_type defteam
    ##      <dbl>   <dbl> <fct>     <fct>     <fct>   <chr>        <fct>  
    ##  1    3981  2.02e9 TB        CAR       CAR     away         TB     
    ##  2    4145  2.02e9 BAL       PHI       PHI     away         BAL    
    ##  3    4143  2.01e9 ATL       WAS       WAS     away         ATL    
    ##  4    3969  2.01e9 HOU       TEN       HOU     home         TEN    
    ##  5    3447  2.02e9 LAC       TEN       TEN     away         LAC    
    ##  6    4712  2.01e9 NE        CLE       NE      home         CLE    
    ##  7    4063  2.02e9 PIT       DAL       PIT     home         DAL    
    ##  8    4202  2.02e9 TEN       IND       TEN     home         IND    
    ##  9    4530  2.02e9 ATL       CIN       CIN     away         ATL    
    ## 10    4063  2.01e9 TB        STL       TB      home         STL    
    ## # … with 668 more rows, and 49 more variables: posteam_score <dbl>,
    ## #   defteam_score <dbl>, score_differential <dbl>, posteam_score_post <dbl>,
    ## #   defteam_score_post <dbl>, score_differential_post <dbl>, desc <chr>,
    ## #   game_date <date>, qtr <dbl>, game_seconds_remaining <dbl>, play_type <fct>,
    ## #   yards_gained <dbl>, two_point_conv_result <fct>,
    ## #   two_point_conversion_prob <dbl>, two_point_attempt <fct>,
    ## #   defensive_two_point_attempt <dbl>, defensive_two_point_conv <dbl>,
    ## #   kicker_player_name <chr>, kicker_player_id <fct>, blocked_player_id <chr>,
    ## #   blocked_player_name <chr>, extra_point_result <fct>,
…
    #2015-09-20 Bengals vs Chargers, Chargers 2pt Conversion Fails 260 seconds remaining
    bengals_chargers_0920_2015 <- nfl_data %>% 
      filter(game_date == "2015-09-20", 
             home_team == "CIN")
    #2017-10-29 Saints vs Bears, Bears 2pt Conversion Fails 238 seconds remaining
    saints_bears_1029_2017 <- nfl_data %>% 
      filter(game_date == "2017-10-29", 
             home_team == "NO")

    #Table showing between 210 and 270 seconds remaining, what coaches have done and how often successful
    post_td_plays %>% 
      filter(game_seconds_remaining >=210 & game_seconds_remaining <= 270)

    ## # A tibble: 245 x 56
    ##    play_id game_id home_team away_team posteam posteam_type defteam
    ##      <dbl>   <dbl> <fct>     <fct>     <fct>   <chr>        <fct>  
    ##  1    3457  2.01e9 TB        DAL       DAL     away         TB     
    ##  2    3808  2.01e9 DAL       NYG       DAL     home         NYG    
    ##  3    3609  2.01e9 MIA       BUF       MIA     home         BUF    
    ##  4    3571  2.01e9 MIN       GB        GB      away         MIN    
    ##  5    3968  2.01e9 MIN       BAL       BAL     away         MIN    
    ##  6    3396  2.01e9 STL       IND       IND     away         STL    
    ##  7    3563  2.01e9 HOU       SF        SF      away         HOU    
    ##  8    3717  2.01e9 BUF       HOU       HOU     away         BUF    
    ##  9    3669  2.01e9 GB        MIN       MIN     away         GB     
    ## 10    4014  2.01e9 CHI       ARI       ARI     away         CHI    
    ## # … with 235 more rows, and 49 more variables: posteam_score <dbl>,
    ## #   defteam_score <dbl>, score_differential <dbl>, posteam_score_post <dbl>,
    ## #   defteam_score_post <dbl>, score_differential_post <dbl>, desc <chr>,
    ## #   game_date <date>, qtr <dbl>, game_seconds_remaining <dbl>, play_type <fct>,
    ## #   yards_gained <dbl>, two_point_conv_result <fct>,
    ## #   two_point_conversion_prob <dbl>, two_point_attempt <fct>,
    ## #   defensive_two_point_attempt <dbl>, defensive_two_point_conv <dbl>,
    ## #   kicker_player_name <chr>, kicker_player_id <fct>, blocked_player_id <chr>,
    ## #   blocked_player_name <chr>, extra_point_result <fct>,
…
